…
------------------------------------------------------------------------

#### **3.2. Importing the data frames**

Using the following chunk’s code, all the data necessary for the
analysis is imported.

#### **3.3. Understand the data**

Is important to preview the data we are dealing with as we get more
comfortable and familiarize with it, in order to draw early conclusions.
For this the `tible` function is used.

    ## # A tibble: 940 x 15
    ##            Id ActivityDate TotalSteps TotalDistance TrackerDistance LoggedActivitie~
    ##         <dbl> <chr>             <int>         <dbl>           <dbl>            <dbl>
    ##  1 1503960366 4/12/2016         13162          8.5             8.5                 0
    ##  2 1503960366 4/13/2016         10735          6.97            6.97                0
    ##  3 1503960366 4/14/2016         10460          6.74            6.74                0
    ##  4 1503960366 4/15/2016          9762          6.28            6.28                0
    ##  5 1503960366 4/16/2016         12669          8.16            8.16                0
    ##  6 1503960366 4/17/2016          9705          6.48            6.48                0
    ##  7 1503960366 4/18/2016         13019          8.59            8.59                0
    ##  8 1503960366 4/19/2016         15506          9.88            9.88                0
    ##  9 1503960366 4/20/2016         10544          6.68            6.68                0
    ## 10 1503960366 4/21/2016          9819          6.34            6.34                0
    ## # ... with 930 more rows, and 9 more variables: VeryActiveDistance <dbl>,
    ## #   ModeratelyActiveDistance <dbl>, LightActiveDistance <dbl>,
    ## #   SedentaryActiveDistance <dbl>, VeryActiveMinutes <int>,
    ## #   FairlyActiveMinutes <int>, LightlyActiveMinutes <int>,
    ## #   SedentaryMinutes <int>, Calories <int>

    ## # A tibble: 413 x 5
    ##            Id SleepDay              TotalSleepRecor~ TotalMinutesAsl~ TotalTimeInBed
    ##         <dbl> <chr>                            <int>            <int>          <int>
    ##  1 1503960366 4/12/2016 12:00:00 AM                1              327            346
    ##  2 1503960366 4/13/2016 12:00:00 AM                2              384            407
    ##  3 1503960366 4/15/2016 12:00:00 AM                1              412            442
    ##  4 1503960366 4/16/2016 12:00:00 AM                2              340            367
    ##  5 1503960366 4/17/2016 12:00:00 AM                1              700            712
    ##  6 1503960366 4/19/2016 12:00:00 AM                1              304            320
    ##  7 1503960366 4/20/2016 12:00:00 AM                1              360            377
    ##  8 1503960366 4/21/2016 12:00:00 AM                1              325            364
    ##  9 1503960366 4/23/2016 12:00:00 AM                1              361            384
    ## 10 1503960366 4/24/2016 12:00:00 AM                1              430            449
    ## # ... with 403 more rows

    ## # A tibble: 2,483,658 x 3
    ##            Id Time                 Value
    ##         <dbl> <chr>                <int>
    ##  1 2022484408 4/12/2016 7:21:00 AM    97
    ##  2 2022484408 4/12/2016 7:21:05 AM   102
    ##  3 2022484408 4/12/2016 7:21:10 AM   105
    ##  4 2022484408 4/12/2016 7:21:20 AM   103
    ##  5 2022484408 4/12/2016 7:21:25 AM   101
    ##  6 2022484408 4/12/2016 7:22:05 AM    95
    ##  7 2022484408 4/12/2016 7:22:10 AM    91
    ##  8 2022484408 4/12/2016 7:22:15 AM    93
    ##  9 2022484408 4/12/2016 7:22:20 AM    94
    ## 10 2022484408 4/12/2016 7:22:25 AM    93
    ## # ... with 2,483,648 more rows

    ## # A tibble: 67 x 8
    ##            Id Date     WeightKg WeightPounds   Fat   BMI IsManualReport    LogId
    ##         <dbl> <chr>       <dbl>        <dbl> <int> <dbl> <chr>             <dbl>
    ##  1 1503960366 5/2/201~     52.6         116.    22  22.6 True            1.46e12
    ##  2 1503960366 5/3/201~     52.6         116.    NA  22.6 True            1.46e12
    ##  3 1927972279 4/13/20~    134.          294.    NA  47.5 False           1.46e12
    ##  4 2873212765 4/21/20~     56.7         125.    NA  21.5 True            1.46e12
    ##  5 2873212765 5/12/20~     57.3         126.    NA  21.7 True            1.46e12
    ##  6 4319703577 4/17/20~     72.4         160.    25  27.5 True            1.46e12
    ##  7 4319703577 5/4/201~     72.3         159.    NA  27.4 True            1.46e12
    ##  8 4558609924 4/18/20~     69.7         154.    NA  27.2 True            1.46e12
    ##  9 4558609924 4/25/20~     70.3         155.    NA  27.5 True            1.46e12
    ## 10 4558609924 5/1/201~     69.9         154.    NA  27.3 True            1.46e12
    ## # ... with 57 more rows

    ## # A tibble: 1,325,580 x 3
    ##            Id ActivityMinute         METs
    ##         <dbl> <chr>                 <int>
    ##  1 1503960366 4/12/2016 12:00:00 AM    10
    ##  2 1503960366 4/12/2016 12:01:00 AM    10
    ##  3 1503960366 4/12/2016 12:02:00 AM    10
    ##  4 1503960366 4/12/2016 12:03:00 AM    10
    ##  5 1503960366 4/12/2016 12:04:00 AM    10
    ##  6 1503960366 4/12/2016 12:05:00 AM    12
    ##  7 1503960366 4/12/2016 12:06:00 AM    12
    ##  8 1503960366 4/12/2016 12:07:00 AM    12
    ##  9 1503960366 4/12/2016 12:08:00 AM    12
    ## 10 1503960366 4/12/2016 12:09:00 AM    12
    ## # ... with 1,325,570 more rows

    ## # A tibble: 188,521 x 4
    ##            Id date                 value       logId
    ##         <dbl> <chr>                <int>       <dbl>
    ##  1 1503960366 4/12/2016 2:47:30 AM     3 11380564589
    ##  2 1503960366 4/12/2016 2:48:30 AM     2 11380564589
    ##  3 1503960366 4/12/2016 2:49:30 AM     1 11380564589
    ##  4 1503960366 4/12/2016 2:50:30 AM     1 11380564589
    ##  5 1503960366 4/12/2016 2:51:30 AM     1 11380564589
    ##  6 1503960366 4/12/2016 2:52:30 AM     1 11380564589
    ##  7 1503960366 4/12/2016 2:53:30 AM     1 11380564589
    ##  8 1503960366 4/12/2016 2:54:30 AM     2 11380564589
    ##  9 1503960366 4/12/2016 2:55:30 AM     2 11380564589
    ## 10 1503960366 4/12/2016 2:56:30 AM     2 11380564589
    ## # ... with 188,511 more rows
…
------------------------------------------------------------------------

#### **3.6. Manipulation and cleaning of the data**

Every data frame requires converting the `Date` field which is in `chr`,
type into `datetime64` type, and then to `yyyy - mm- dd` format, to give
consistency throught the whole dataset.

------------------------------------------------------------------------

##### **3.6.1. Daily Activity DataFrame**

    ## # A tibble: 940 x 18
    ##            Id fixed_date week_day  TotalSteps TotalDistance TrackerDistance
    ##         <dbl> <date>     <chr>          <int>         <dbl>           <dbl>
    ##  1 1503960366 2016-04-12 Tuesday        13162          8.5             8.5 
    ##  2 1503960366 2016-04-13 Wednesday      10735          6.97            6.97
    ##  3 1503960366 2016-04-14 Thursday       10460          6.74            6.74
    ##  4 1503960366 2016-04-15 Friday          9762          6.28            6.28
    ##  5 1503960366 2016-04-16 Saturday       12669          8.16            8.16
    ##  6 1503960366 2016-04-17 Sunday          9705          6.48            6.48
    ##  7 1503960366 2016-04-18 Monday         13019          8.59            8.59
    ##  8 1503960366 2016-04-19 Tuesday        15506          9.88            9.88
    ##  9 1503960366 2016-04-20 Wednesday      10544          6.68            6.68
    ## 10 1503960366 2016-04-21 Thursday        9819          6.34            6.34
    ## # ... with 930 more rows, and 12 more variables:
    ## #   LoggedActivitiesDistance <dbl>, VeryActiveDistance <dbl>,
    ## #   ModeratelyActiveDistance <dbl>, LightActiveDistance <dbl>,
    ## #   SedentaryActiveDistance <dbl>, VeryActiveMinutes <int>,
    ## #   FairlyActiveMinutes <int>, LightlyActiveMinutes <int>,
    ## #   SedentaryMinutes <int>, Calories <int>, time_logged_mins <int>,
    ## #   time_logged_hours <dbl>
…
#Adding more information such as average sleep cycle time in minutes and hours
#per day
summary_sleep <- summary_sleep %>% 
  mutate(avg_light = `Light Sleep`/number_days, avg_deep = `Deep Sleep`/number_days,
         avg_rem = `REM Sleep`/number_days)
summary_sleep <- summary_sleep %>% 
  mutate(total_sleep = round((avg_light + avg_deep + avg_rem), digit = 2))
summary_sleep <- summary_sleep %>% 
  mutate(hours_sleep = total_sleep/60)
tibble(summary_sleep)
```

    ## # A tibble: 713 x 12
    ##            Id number_days   logId date       `Light Sleep` `Deep Sleep` `REM Sleep`
    ##         <dbl>       <int>   <dbl> <date>             <int>        <int>       <int>
    ##  1 1503960366          25 1.16e10 2016-05-06           334           31           2
    ##  2 1503960366          25 1.14e10 2016-04-13            94           NA          NA
    ##  3 1503960366          25 1.16e10 2016-05-11           285           21          NA
    ##  4 1503960366          25 1.14e10 2016-04-17           668           11          NA
    ##  5 1503960366          25 1.15e10 2016-04-29           341           13          NA
    ##  6 1503960366          25 1.15e10 2016-05-01           369           22           5
    ##  7 1503960366          25 1.14e10 2016-04-19           304           16          NA
    ##  8 1503960366          25 1.14e10 2016-04-13           290           11          12
    ##  9 1503960366          25 1.16e10 2016-05-09           338            4          NA
    ## 10 1503960366          25 1.16e10 2016-05-07           331           16           2
    ## # ... with 703 more rows, and 5 more variables: avg_light <dbl>,
    ## #   avg_deep <dbl>, avg_rem <dbl>, total_sleep <dbl>, hours_sleep <dbl>
…
min_sleep_clean <- min_sleep_clean %>% 
  group_by(logId, date, Id) %>% 
  summarize(total_mins = sum(mins))
```

    ## `summarise()` has grouped output by 'logId', 'date'. You can override using the `.groups` argument.

``` r
min_sleep_clean$week_day <- weekdays(min_sleep_clean$date)
tibble(min_sleep_clean)
```

    ## # A tibble: 713 x 5
    ##          logId date               Id total_mins week_day
    ##          <dbl> <date>          <dbl>      <dbl> <chr>   
    ##  1 11372227280 2016-04-11 5553957443        100 Monday  
    ##  2 11372227280 2016-04-12 5553957443        364 Tuesday 
    ##  3 11372414035 2016-04-11 1927972279        124 Monday  
    ##  4 11372414035 2016-04-12 1927972279        369 Tuesday 
    ##  5 11372566564 2016-04-11 2026352035        192 Monday  
    ##  6 11372566564 2016-04-12 2026352035        354 Tuesday 
    ##  7 11372617693 2016-04-12 6962181067        387 Tuesday 
    ##  8 11373088895 2016-04-11 8378563200        101 Monday  
    ##  9 11373088895 2016-04-12 8378563200        255 Tuesday 
    ## 10 11374744422 2016-04-12 4445114986        332 Tuesday 
    ## # ... with 703 more rows
…
